%YAML 1.1
%TAG !u! tag:unity3d.com,2011:
--- !u!114 &8462477818105069805
MonoBehaviour:
  m_ObjectHideFlags: 0
  m_CorrespondingSourceObject: {fileID: 0}
  m_PrefabInstance: {fileID: 0}
  m_PrefabAsset: {fileID: 0}
  m_GameObject: {fileID: 2466279098102196057}
  m_Enabled: 1
  m_EditorHideFlags: 0
  m_Script: {fileID: 11500000, guid: 5d24e07a4b7c4f0429f8a37813e3b6fa, type: 3}
  m_Name: 
  m_EditorClassIdentifier: 
  speed: 0
  area: 3
--- !u!1001 &3688122789632923536
PrefabInstance:
  m_ObjectHideFlags: 0
  serializedVersion: 2
  m_Modification:
    m_TransformParent: {fileID: 0}
    m_Modifications:
    - target: {fileID: 1231492498880065737, guid: dcf94025f5782754f8623ac3f58ab5fc,
        type: 3}
      propertyPath: m_Name
      value: Enemy spooklevel 3
      objectReference: {fileID: 0}
    - target: {fileID: 1231492498880065714, guid: dcf94025f5782754f8623ac3f58ab5fc,
        type: 3}
      propertyPath: m_LocalPosition.x
      value: -6.4688406
      objectReference: {fileID: 0}
    - target: {fileID: 1231492498880065714, guid: dcf94025f5782754f8623ac3f58ab5fc,
        type: 3}
      propertyPath: m_LocalPosition.y
      value: 0.46
      objectReference: {fileID: 0}
    - target: {fileID: 1231492498880065714, guid: dcf94025f5782754f8623ac3f58ab5fc,
        type: 3}
      propertyPath: m_LocalPosition.z
      value: 8.610518
      objectReference: {fileID: 0}
    - target: {fileID: 1231492498880065714, guid: dcf94025f5782754f8623ac3f58ab5fc,
        type: 3}
      propertyPath: m_LocalRotation.x
      value: 0
      objectReference: {fileID: 0}
    - target: {fileID: 1231492498880065714, guid: dcf94025f5782754f8623ac3f58ab5fc,
        type: 3}
      propertyPath: m_LocalRotation.y
      value: 1
      objectReference: {fileID: 0}
    - target: {fileID: 1231492498880065714, guid: dcf94025f5782754f8623ac3f58ab5fc,
        type: 3}
      propertyPath: m_LocalRotation.z
      value: 0
      objectReference: {fileID: 0}
    - target: {fileID: 1231492498880065714, guid: dcf94025f5782754f8623ac3f58ab5fc,
        type: 3}
      propertyPath: m_LocalRotation.w
      value: 0
      objectReference: {fileID: 0}
    - target: {fileID: 1231492498880065714, guid: dcf94025f5782754f8623ac3f58ab5fc,
        type: 3}
      propertyPath: m_RootOrder
      value: 0
      objectReference: {fileID: 0}
    - target: {fileID: 1231492498880065714, guid: dcf94025f5782754f8623ac3f58ab5fc,
        type: 3}
      propertyPath: m_LocalEulerAnglesHint.x
      value: 0
      objectReference: {fileID: 0}
    - target: {fileID: 1231492498880065714, guid: dcf94025f5782754f8623ac3f58ab5fc,
        type: 3}
      propertyPath: m_LocalEulerAnglesHint.y
      value: 180
      objectReference: {fileID: 0}
    - target: {fileID: 1231492498880065714, guid: dcf94025f5782754f8623ac3f58ab5fc,
        type: 3}
      propertyPath: m_LocalEulerAnglesHint.z
      value: 0
      objectReference: {fileID: 0}
    - target: {fileID: 2275743696883974854, guid: dcf94025f5782754f8623ac3f58ab5fc,
        type: 3}
      propertyPath: m_Mesh
      value: 
      objectReference: {fileID: 0}
    - target: {fileID: 2766483858022068884, guid: dcf94025f5782754f8623ac3f58ab5fc,
        type: 3}
      propertyPath: m_Mesh
      value: 
      objectReference: {fileID: 0}
    - target: {fileID: 5293382882388899163, guid: dcf94025f5782754f8623ac3f58ab5fc,
        type: 3}
      propertyPath: m_Mesh
      value: 
      objectReference: {fileID: 0}
    - target: {fileID: 2828186383659634589, guid: dcf94025f5782754f8623ac3f58ab5fc,
        type: 3}
      propertyPath: m_Mesh
      value: 
      objectReference: {fileID: 0}
    - target: {fileID: 6904193799264443393, guid: dcf94025f5782754f8623ac3f58ab5fc,
        type: 3}
      propertyPath: m_Mesh
      value: 
      objectReference: {fileID: 0}
    - target: {fileID: 6221612754729463302, guid: dcf94025f5782754f8623ac3f58ab5fc,
        type: 3}
      propertyPath: m_Mesh
      value: 
      objectReference: {fileID: 0}
    - target: {fileID: 260581272974623762, guid: dcf94025f5782754f8623ac3f58ab5fc,
        type: 3}
      propertyPath: m_Mesh
      value: 
      objectReference: {fileID: 0}
    - target: {fileID: 3037670492463805658, guid: dcf94025f5782754f8623ac3f58ab5fc,
        type: 3}
      propertyPath: m_Mesh
      value: 
      objectReference: {fileID: 0}
    - target: {fileID: 7850993780810937867, guid: dcf94025f5782754f8623ac3f58ab5fc,
        type: 3}
      propertyPath: m_Mesh
      value: 
      objectReference: {fileID: 0}
    - target: {fileID: 8880214856891874088, guid: dcf94025f5782754f8623ac3f58ab5fc,
        type: 3}
      propertyPath: m_Mesh
      value: 
      objectReference: {fileID: 0}
    m_RemovedComponents:
    - {fileID: 6150530713342134392, guid: dcf94025f5782754f8623ac3f58ab5fc, type: 3}
  m_SourcePrefab: {fileID: 100100000, guid: dcf94025f5782754f8623ac3f58ab5fc, type: 3}
--- !u!1 &2466279098102196057 stripped
GameObject:
  m_CorrespondingSourceObject: {fileID: 1231492498880065737, guid: dcf94025f5782754f8623ac3f58ab5fc,
    type: 3}
  m_PrefabInstance: {fileID: 3688122789632923536}
  m_PrefabAsset: {fileID: 0}
