%YAML 1.1
%TAG !u! tag:unity3d.com,2011:
--- !u!114 &6150530713342134392
MonoBehaviour:
  m_ObjectHideFlags: 0
  m_CorrespondingSourceObject: {fileID: 0}
  m_PrefabInstance: {fileID: 0}
  m_PrefabAsset: {fileID: 0}
  m_GameObject: {fileID: 1231492498880065737}
  m_Enabled: 1
  m_EditorHideFlags: 0
  m_Script: {fileID: 11500000, guid: a4b6d5ffca1f5fe4ebd519e4a195a2dd, type: 3}
  m_Name: 
  m_EditorClassIdentifier: 
  speed: 0
  area: 3
--- !u!1001 &125450412496237731
PrefabInstance:
  m_ObjectHideFlags: 0
  serializedVersion: 2
  m_Modification:
    m_TransformParent: {fileID: 0}
    m_Modifications:
    - target: {fileID: 1200934546230363242, guid: 84778c27c8ec0de4abd2705437b6983e,
        type: 3}
      propertyPath: m_Name
      value: Enemy spooklevel 2
      objectReference: {fileID: 0}
    - target: {fileID: 1200934546230363153, guid: 84778c27c8ec0de4abd2705437b6983e,
        type: 3}
      propertyPath: m_LocalPosition.x
      value: -6.4688406
      objectReference: {fileID: 0}
    - target: {fileID: 1200934546230363153, guid: 84778c27c8ec0de4abd2705437b6983e,
        type: 3}
      propertyPath: m_LocalPosition.y
      value: 0.46
      objectReference: {fileID: 0}
    - target: {fileID: 1200934546230363153, guid: 84778c27c8ec0de4abd2705437b6983e,
        type: 3}
      propertyPath: m_LocalPosition.z
      value: 8.610518
      objectReference: {fileID: 0}
    - target: {fileID: 1200934546230363153, guid: 84778c27c8ec0de4abd2705437b6983e,
        type: 3}
      propertyPath: m_LocalRotation.x
      value: 0
      objectReference: {fileID: 0}
    - target: {fileID: 1200934546230363153, guid: 84778c27c8ec0de4abd2705437b6983e,
        type: 3}
      propertyPath: m_LocalRotation.y
      value: 1
      objectReference: {fileID: 0}
    - target: {fileID: 1200934546230363153, guid: 84778c27c8ec0de4abd2705437b6983e,
        type: 3}
      propertyPath: m_LocalRotation.z
      value: 0
      objectReference: {fileID: 0}
    - target: {fileID: 1200934546230363153, guid: 84778c27c8ec0de4abd2705437b6983e,
        type: 3}
      propertyPath: m_LocalRotation.w
      value: 0
      objectReference: {fileID: 0}
    - target: {fileID: 1200934546230363153, guid: 84778c27c8ec0de4abd2705437b6983e,
        type: 3}
      propertyPath: m_RootOrder
      value: 0
      objectReference: {fileID: 0}
    - target: {fileID: 1200934546230363153, guid: 84778c27c8ec0de4abd2705437b6983e,
        type: 3}
      propertyPath: m_LocalEulerAnglesHint.x
      value: 0
      objectReference: {fileID: 0}
    - target: {fileID: 1200934546230363153, guid: 84778c27c8ec0de4abd2705437b6983e,
        type: 3}
      propertyPath: m_LocalEulerAnglesHint.y
      value: 180
      objectReference: {fileID: 0}
    - target: {fileID: 1200934546230363153, guid: 84778c27c8ec0de4abd2705437b6983e,
        type: 3}
      propertyPath: m_LocalEulerAnglesHint.z
      value: 0
      objectReference: {fileID: 0}
    - target: {fileID: 2173163472032446053, guid: 84778c27c8ec0de4abd2705437b6983e,
        type: 3}
      propertyPath: m_Mesh
      value: 
      objectReference: {fileID: 0}
    - target: {fileID: 2871385701709137463, guid: 84778c27c8ec0de4abd2705437b6983e,
        type: 3}
      propertyPath: m_Mesh
      value: 
      objectReference: {fileID: 0}
    - target: {fileID: 5244564721678402040, guid: 84778c27c8ec0de4abd2705437b6983e,
        type: 3}
      propertyPath: m_Mesh
      value: 
      objectReference: {fileID: 0}
    - target: {fileID: 2774794564091951934, guid: 84778c27c8ec0de4abd2705437b6983e,
        type: 3}
      propertyPath: m_Mesh
      value: 
      objectReference: {fileID: 0}
    - target: {fileID: 6804147193035827362, guid: 84778c27c8ec0de4abd2705437b6983e,
        type: 3}
      propertyPath: m_Mesh
      value: 
      objectReference: {fileID: 0}
    - target: {fileID: 6334923836981762725, guid: 84778c27c8ec0de4abd2705437b6983e,
        type: 3}
      propertyPath: m_Mesh
      value: 
      objectReference: {fileID: 0}
    - target: {fileID: 153251261230493873, guid: 84778c27c8ec0de4abd2705437b6983e,
        type: 3}
      propertyPath: m_Mesh
      value: 
      objectReference: {fileID: 0}
    - target: {fileID: 3141904279707451513, guid: 84778c27c8ec0de4abd2705437b6983e,
        type: 3}
      propertyPath: m_Mesh
      value: 
      objectReference: {fileID: 0}
    - target: {fileID: 7875077499473543848, guid: 84778c27c8ec0de4abd2705437b6983e,
        type: 3}
      propertyPath: m_Mesh
      value: 
      objectReference: {fileID: 0}
    - target: {fileID: 8827455632067792779, guid: 84778c27c8ec0de4abd2705437b6983e,
        type: 3}
      propertyPath: m_Mesh
      value: 
      objectReference: {fileID: 0}
    - target: {fileID: 640576673, guid: 84778c27c8ec0de4abd2705437b6983e, type: 3}
      propertyPath: hazardMinX
      value: -5
      objectReference: {fileID: 0}
    - target: {fileID: 640576673, guid: 84778c27c8ec0de4abd2705437b6983e, type: 3}
      propertyPath: hazardMaxX
      value: 5
      objectReference: {fileID: 0}
    - target: {fileID: 640576673, guid: 84778c27c8ec0de4abd2705437b6983e, type: 3}
      propertyPath: hazardMinZ
      value: -5
      objectReference: {fileID: 0}
    - target: {fileID: 640576673, guid: 84778c27c8ec0de4abd2705437b6983e, type: 3}
      propertyPath: hazardMaxZ
      value: 5
      objectReference: {fileID: 0}
    - target: {fileID: 640576673, guid: 84778c27c8ec0de4abd2705437b6983e, type: 3}
      propertyPath: speed
      value: 0
      objectReference: {fileID: 0}
    - target: {fileID: 640576673, guid: 84778c27c8ec0de4abd2705437b6983e, type: 3}
      propertyPath: area
      value: 4
      objectReference: {fileID: 0}
    m_RemovedComponents:
    - {fileID: 640576673, guid: 84778c27c8ec0de4abd2705437b6983e, type: 3}
  m_SourcePrefab: {fileID: 100100000, guid: 84778c27c8ec0de4abd2705437b6983e, type: 3}
--- !u!1 &1231492498880065737 stripped
GameObject:
  m_CorrespondingSourceObject: {fileID: 1200934546230363242, guid: 84778c27c8ec0de4abd2705437b6983e,
    type: 3}
  m_PrefabInstance: {fileID: 125450412496237731}
  m_PrefabAsset: {fileID: 0}
